%YAML 1.1
%TAG !u! tag:unity3d.com,2011:
--- !u!21 &2100000
Material:
  serializedVersion: 6
  m_ObjectHideFlags: 0
  m_PrefabParentObject: {fileID: 0}
  m_PrefabInternal: {fileID: 0}
  m_Name: FireOrange_2
  m_Shader: {fileID: 4800000, guid: 9975d8168680a8b4ebc0941cbb57bd17, type: 3}
  m_ShaderKeywords: 
  m_LightmapFlags: 5
  m_CustomRenderQueue: -1
  stringTagMap: {}
  m_SavedProperties:
    serializedVersion: 2
    m_TexEnvs:
      data:
        first:
          name: _MainTex
        second:
          m_Texture: {fileID: 2800000, guid: 2f950a687ae69ec4ba120b05963e3d14, type: 3}
          m_Scale: {x: 1, y: 1}
          m_Offset: {x: 0, y: 0}
    m_Floats:
      data:
        first:
          name: _InvFade
        second: 3
      data:
        first:
          name: _TintStrength
        second: 1.57000005
      data:
        first:
          name: _CoreStrength
        second: 2.01999998
      data:
        first:
          name: _CutOutLightCore
        second: 1
    m_Colors:
      data:
        first:
          name: _Color
        second: {r: 1, g: 1, b: 1, a: 1}
      data:
        first:
          name: _TintColor
        second: {r: 1, g: .344219059, b: .102941155, a: .53725493}
      data:
        first:
          name: _CoreColor
        second: {r: 1, g: 1, b: 1, a: .325490206}
