%YAML 1.1
%TAG !u! tag:unity3d.com,2011:
--- !u!21 &2100000
Material:
  serializedVersion: 6
  m_ObjectHideFlags: 0
  m_PrefabParentObject: {fileID: 0}
  m_PrefabInternal: {fileID: 0}
  m_Name: DistortionDark
  m_Shader: {fileID: 4800000, guid: 84cf8d63687679b4e96326697d05ea5a, type: 3}
  m_ShaderKeywords: 
  m_LightmapFlags: 5
  m_CustomRenderQueue: -1
  stringTagMap: {}
  m_SavedProperties:
    serializedVersion: 2
    m_TexEnvs:
      data:
        first:
          name: _MainTex
        second:
          m_Texture: {fileID: 2800000, guid: 1bb7326142574df4a8f3bfe83fe180d1, type: 3}
          m_Scale: {x: 1, y: 1}
          m_Offset: {x: 0, y: 0}
      data:
        first:
          name: _BumpMap
        second:
          m_Texture: {fileID: 2800000, guid: 76960746b93ec6445ac0e8f1e1f6414c, type: 3}
          m_Scale: {x: 1, y: 1}
          m_Offset: {x: 0, y: 0}
      data:
        first:
          name: _Mask
        second:
          m_Texture: {fileID: 0}
          m_Scale: {x: 1, y: 1}
          m_Offset: {x: 0, y: 0}
      data:
        first:
          name: _CutOut
        second:
          m_Texture: {fileID: 2800000, guid: 1bb7326142574df4a8f3bfe83fe180d1, type: 3}
          m_Scale: {x: 1, y: 1}
          m_Offset: {x: 0, y: 0}
    m_Floats:
      data:
        first:
          name: _Glossiness
        second: .5
      data:
        first:
          name: _Metallic
        second: 0
      data:
        first:
          name: _InvFade
        second: 1
      data:
        first:
          name: _ColorStrength
        second: .150000006
      data:
        first:
          name: _BumpAmt
        second: 17
      data:
        first:
          name: _TintStrength
        second: 1
      data:
        first:
          name: _CoreStrength
        second: 1
      data:
        first:
          name: _CutOutLightCore
        second: .5
      data:
        first:
          name: _LightStrength
        second: 1
      data:
        first:
          name: _BlackLightStrength
        second: 1
    m_Colors:
      data:
        first:
          name: _Color
        second: {r: 1, g: 1, b: 1, a: 1}
      data:
        first:
          name: _TintColor
        second: {r: .25, g: .238083169, b: .231617644, a: 1}
      data:
        first:
          name: _CoreColor
        second: {r: .5, g: .5, b: .5, a: .5}
      data:
        first:
          name: _Direction
        second: {r: 1, g: 1, b: -1, a: -1}
