%YAML 1.1
%TAG !u! tag:unity3d.com,2011:
--- !u!21 &2100000
Material:
  serializedVersion: 6
  m_ObjectHideFlags: 0
  m_PrefabParentObject: {fileID: 0}
  m_PrefabInternal: {fileID: 0}
  m_Name: EffectLighting
  m_Shader: {fileID: 4800000, guid: 9975d8168680a8b4ebc0941cbb57bd17, type: 3}
  m_ShaderKeywords: 
  m_LightmapFlags: 5
  m_CustomRenderQueue: -1
  stringTagMap: {}
  m_SavedProperties:
    serializedVersion: 2
    m_TexEnvs:
      data:
        first:
          name: _MainTex
        second:
          m_Texture: {fileID: 2800000, guid: 9f8706a09b0f8b04182e7a73000bd4c7, type: 3}
          m_Scale: {x: 1, y: 1}
          m_Offset: {x: 0, y: 0}
      data:
        first:
          name: _GlowTex
        second:
          m_Texture: {fileID: 2800000, guid: 45248f60f5a7e654a9b5b83ed9ae25db, type: 3}
          m_Scale: {x: 1, y: 1}
          m_Offset: {x: 0, y: 0}
    m_Floats:
      data:
        first:
          name: _InvFade
        second: 3
      data:
        first:
          name: _TintStrength
        second: 5
      data:
        first:
          name: _CoreStrength
        second: 2
      data:
        first:
          name: _CutOutLightCore
        second: 1
      data:
        first:
          name: _GlowStrength
        second: 1
    m_Colors:
      data:
        first:
          name: _Color
        second: {r: 1, g: 1, b: 1, a: 1}
      data:
        first:
          name: _TintColor
        second: {r: .448529422, g: .543610573, b: 1, a: 1}
      data:
        first:
          name: _CoreColor
        second: {r: 1, g: 1, b: 1, a: .501960814}
      data:
        first:
          name: _GlowColor
        second: {r: .715417504, g: .661769152, b: .99999994, a: 1}
